{"_items": [{"_updated": "Thu, 01 Jan 1970 00:00:00 GMT", "regions": [{"region": "RU", "cities": [{"city": "moscow", "country": "Russian Federation", "loc": [55.755826, 37.6173], "battles": "3705238", "players": "169837"}, {"city": "kiev", "country": "Ukraine", "loc": [50.4501, 30.5234], "battles": "2404564", "players": "111426"}, {"city": "st petersburg", "country": "Russian Federation", "loc": [59.9342802, 30.3350986], "battles": "1650150", "players": "76114"}, {"city": "minsk", "country": "Belarus", "loc": [53.90453979999999, 27.5615244], "battles": "1190805", "players": "53137"}, {"city": "novosibirsk", "country": "Russian Federation", "loc": [55.00835259999999, 82.9357327], "battles": "1070358", "players": "47664"}, {"city": "ekaterinburg", "country": "Russian Federation", "loc": [56.83892609999999, 60.6057025], "battles": "1064028", "players": "47250"}, {"city": "krasnodar", "country": "Russian Federation", "loc": [45.03333300000001, 38.966667], "battles": "940934", "players": "41829"}, {"city": "samara", "country": "Russian Federation", "loc": [53.202778, 50.140833], "battles": "766848", "players": "35126"}, {"city": "odessa", "country": "Ukraine", "loc": [46.482526, 30.7233095], "battles": "744283", "players": "32384"}, {"city": "kazan", "country": "Russian Federation", "loc": [55.790278, 49.134722], "battles": "615157", "players": "28328"}], "pccu": "560207"}, {"region": "EU", "cities": [{"city": "warsaw", "country": "Poland", "loc": [52.2296756, 21.0122287], "battles": "315591", "players": "17046"}, {"city": "belgrade", "country": "Serbia", "loc": [44.786568, 20.4489216], "battles": "169626", "players": "8201"}, {"city": "prague", "country": "Czech Republic", "loc": [50.0755381, 14.4378005], "battles": "138647", "players": "7923"}, {"city": "budapest", "country": "Hungary", "loc": [47.497912, 19.040235], "battles": "123588", "players": "7013"}, {"city": "bucharest", "country": "Romania", "loc": [44.4267674, 26.1025384], "battles": "109007", "players": "5214"}, {"city": "berlin", "country": "Germany", "loc": [52.52000659999999, 13.404954], "battles": "102054", "players": "5572"}, {"city": "poznan", "country": "Poland", "loc": [52.406374, 16.9251681], "battles": "89773", "players": "5112"}, {"city": "zagreb", "country": "Croatia", "loc": [45.8150108, 15.981919], "battles": "85279", "players": "4267"}, {"city": "krakow", "country": "Poland", "loc": [50.06465009999999, 19.9449799], "battles": "77919", "players": "4497"}, {"city": "istanbul", "country": "Turkey", "loc": [41.0082376, 28.9783589], "battles": "67977", "players": "3287"}], "pccu": "121560"}, {"region": "NA", "cities": [{"city": "buenos aires", "country": "Argentina", "loc": [-34.6036844, -58.3815591], "battles": "25144", "players": "1294"}, {"city": "ulaanbaatar", "country": "Mongolia", "loc": [47.91999999999999, 106.92], "battles": "13634", "players": "588"}, {"city": "santiago", "country": "Chile", "loc": [-33.4488897, -70.6692655], "battles": "13514", "players": "670"}, {"city": "calgary", "country": "Canada", "loc": [51.0486151, -114.0708459], "battles": "13286", "players": "733"}, {"city": "toronto", "country": "Canada", "loc": [43.653226, -79.3831843], "battles": "12714", "players": "739"}, {"city": "mexico city", "country": "Mexico", "loc": [19.4326077, -99.133208], "battles": "11428", "players": "579"}, {"city": "montevideo", "country": "Uruguay", "loc": [-34.9011127, -56.16453139999999], "battles": "10992", "players": "487"}, {"city": "edmonton", "country": "Canada", "loc": [53.544389, -113.4909267], "battles": "10489", "players": "589"}, {"city": "lima", "country": "Peru", "loc": [-12.046374, -77.0427934], "battles": "10469", "players": "526"}, {"city": "montreal", "country": "Canada", "loc": [45.5016889, -73.567256], "battles": "9980", "players": "585"}], "pccu": "30011"}, {"region": "CN_N", "cities": [{"city": "beijing", "country": "China", "loc": [39.904211, 116.407395], "battles": "1003356", "players": "48770"}, {"city": "reserved", "country": "N/D", "loc": [46.382665, -120.3044826], "battles": "980287", "players": "48810"}, {"city": "zhengzhou", "country": "China", "loc": [34.747041, 113.625805], "battles": "194448", "players": "8808"}, {"city": "jinan", "country": "China", "loc": [36.651216, 117.12], "battles": "193228", "players": "8881"}, {"city": "shenyang", "country": "China", "loc": [41.805699, 123.431472], "battles": "177577", "players": "8090"}, {"city": "shijiazhuang", "country": "China", "loc": [38.042307, 114.51486], "battles": "153550", "players": "7162"}, {"city": "harbin", "country": "China", "loc": [45.80377499999999, 126.534967], "battles": "112043", "players": "5444"}, {"city": "tianjin", "country": "China", "loc": [39.084158, 117.200983], "battles": "101072", "players": "4852"}, {"city": "changchun", "country": "China", "loc": [43.817072, 125.323544], "battles": "91419", "players": "4333"}, {"city": "taiyuan", "country": "China", "loc": [37.87059, 112.548879], "battles": "67906", "players": "2970"}], "pccu": "52592"}, {"region": "SEA", "cities": [{"city": "taipei", "country": "Taiwan  Province Of China", "loc": [25.0329694, 121.5654177], "battles": "96289", "players": "4529"}, {"city": "hanoi", "country": "Viet Nam", "loc": [21.0277644, 105.8341598], "battles": "87797", "players": "3776"}, {"city": "bangkok", "country": "Thailand", "loc": [13.7563309, 100.5017651], "battles": "64705", "players": "3556"}, {"city": "tokyo", "country": "Japan", "loc": [35.7090259, 139.7319925], "battles": "60575", "players": "3185"}, {"city": "thanh pho ho chi minh", "country": "Viet Nam", "loc": [10.8230989, 106.6296638], "battles": "52547", "players": "2403"}, {"city": "taichung", "country": "Taiwan  Province Of China", "loc": [24.1477358, 120.6736482], "battles": "36689", "players": "1838"}, {"city": "kaohsiung", "country": "Taiwan  Province Of China", "loc": [22.6272784, 120.3014353], "battles": "34059", "players": "1743"}, {"city": "hsinchu", "country": "Taiwan  Province Of China", "loc": [24.8066493, 120.9669257], "battles": "28666", "players": "1391"}, {"city": "singapore", "country": "Singapore", "loc": [1.2800945, 103.8509491], "battles": "25861", "players": "1493"}, {"city": "hong kong", "country": "Hong Kong", "loc": [22.396428, 114.109497], "battles": "20851", "players": "1244"}], "pccu": "19632"}, {"region": "KR", "cities": [{"city": "seoul", "country": "Korea  Republic Of", "loc": [37.5318933, 126.9191163], "battles": "196503", "players": "10461"}, {"city": "incheon", "country": "Korea  Republic Of", "loc": [37.4562557, 126.7052062], "battles": "11782", "players": "617"}, {"city": "busan", "country": "Korea  Republic Of", "loc": [35.1795543, 129.0756416], "battles": "9832", "players": "535"}, {"city": "daegu", "country": "Korea  Republic Of", "loc": [35.8714354, 128.601445], "battles": "7398", "players": "411"}, {"city": "suwon", "country": "Korea  Republic Of", "loc": [37.2635727, 127.0286009], "battles": "5739", "players": "308"}, {"city": "seongnam", "country": "Korea  Republic Of", "loc": [0.0, 0.0], "battles": "5112", "players": "284"}, {"city": "daejeon", "country": "Korea  Republic Of", "loc": [36.3504119, 127.3845475], "battles": "5091", "players": "269"}, {"city": "anyang-dong", "country": "N/D", "loc": [37.3855729, 126.9188756], "battles": "4660", "players": "246"}, {"city": "kwangju", "country": "Korea  Republic Of", "loc": [35.1595454, 126.8526012], "battles": "3997", "players": "198"}, {"city": "jugyo-dong", "country": "Korea  Republic Of", "loc": [0.0, 0.0], "battles": "3735", "players": "209"}], "pccu": "3852"}, {"region": "CN_S", "cities": [{"city": "reserved", "country": "N/D", "loc": [46.382665, -120.3044826], "battles": "1739345", "players": "83158"}, {"city": "beijing", "country": "China", "loc": [39.904211, 116.407395], "battles": "1212577", "players": "56364"}, {"city": "chengdu", "country": "China", "loc": [30.572269, 104.066541], "battles": "357579", "players": "15786"}, {"city": "shanghai", "country": "China", "loc": [31.230416, 121.473701], "battles": "249560", "players": "10031"}, {"city": "guangzhou", "country": "China", "loc": [23.12911, 113.264385], "battles": "216765", "players": "9514"}, {"city": "nanjing", "country": "China", "loc": [32.060255, 118.796877], "battles": "202126", "players": "9157"}, {"city": "chongqing", "country": "China", "loc": [29.56301, 106.551557], "battles": "191066", "players": "8190"}, {"city": "nanning", "country": "China", "loc": [22.817002, 108.366543], "battles": "183736", "players": "7653"}, {"city": "changsha", "country": "China", "loc": [28.228209, 112.938814], "battles": "165926", "players": "6965"}, {"city": "wuhan", "country": "China", "loc": [30.593099, 114.305393], "battles": "153788", "players": "6782"}], "pccu": "87724"}], "day_report": "Fri, 10 Jul 2015 04:00:00 GMT", "_links": {"self": {"href": "citytop/10/07/2015", "title": "Citytop"}}, "_created": "Thu, 01 Jan 1970 00:00:00 GMT", "_id": "10/07/2015", "_etag": "83be27e24a78e8a7f8eb65cf0386614a63de2698"}], "_links": {"self": {"href": "citytop?max_results=1", "title": "citytop"}, "last": {"href": "citytop?max_results=1&page=60", "title": "last page"}, "parent": {"href": "/", "title": "home"}, "next": {"href": "citytop?max_results=1&page=2", "title": "next page"}}, "_meta": {"max_results": 1, "total": 60, "page": 1}}