{
  "_items": [
    {
      "_updated": "Thu, 01 Jan 1970 00:00:00 GMT",
      "city": "Kagoshima-shi",
      "loc": [
        31.5965535,
        130.5571158
      ],
      "cntr_long": "Japan",
      "day_report": "22/3/2015",
      "twit_cnt": 1.0,
      "_links": {
        "self": {
          "href": "citytwits/22/3/2015JapanKagoshima-shi",
          "title": "Citytwit"
        }
      },
      "_created": "Thu, 01 Jan 1970 00:00:00 GMT",
      "_id": "22/3/2015JapanKagoshima-shi",
      "_etag": "df81e0656c01bbdefaa624a092a4af109f0d9bd7"
    },
    {
      "_updated": "Thu, 01 Jan 1970 00:00:00 GMT",
      "city": "Tucson",
      "loc": [
        32.2217429,
        -110.926479
      ],
      "cntr_long": "United States",
      "day_report": "22/3/2015",
      "twit_cnt": 1.0,
      "_links": {
        "self": {
          "href": "citytwits/22/3/2015United StatesTucson",
          "title": "Citytwit"
        }
      },
      "_created": "Thu, 01 Jan 1970 00:00:00 GMT",
      "_id": "22/3/2015United StatesTucson",
      "_etag": "5cb830e002bb834bc76af3787f73380ee36ba0ad"
    },
    {
      "_updated": "Thu, 01 Jan 1970 00:00:00 GMT",
      "city": "Bondurant",
      "loc": [
        41.7019329,
        -93.4607681
      ],
      "cntr_long": "United States",
      "day_report": "22/3/2015",
      "twit_cnt": 1.0,
      "_links": {
        "self": {
          "href": "citytwits/22/3/2015United StatesBondurant",
          "title": "Citytwit"
        }
      },
      "_created": "Thu, 01 Jan 1970 00:00:00 GMT",
      "_id": "22/3/2015United StatesBondurant",
      "_etag": "d6e7f605167692993dba672ba78201a4dbc5a172"
    },
    {
      "_updated": "Thu, 01 Jan 1970 00:00:00 GMT",
      "city": " ",
      "loc": [
        37.09024,
        -95.712891
      ],
      "cntr_long": "United States",
      "day_report": "22/3/2015",
      "twit_cnt": 10.0,
      "_links": {
        "self": {
          "href": "citytwits/22/3/2015United States ",
          "title": "Citytwit"
        }
      },
      "_created": "Thu, 01 Jan 1970 00:00:00 GMT",
      "_id": "22/3/2015United States ",
      "_etag": "b0034c50a99183c0c14a6aa22dd8bcc087145ff9"
    },
    {
      "_updated": "Thu, 01 Jan 1970 00:00:00 GMT",
      "city": "Matsue",
      "loc": [
        35.4680595,
        133.048375
      ],
      "cntr_long": "Japan",
      "day_report": "22/3/2015",
      "twit_cnt": 1.0,
      "_links": {
        "self": {
          "href": "citytwits/22/3/2015JapanMatsue",
          "title": "Citytwit"
        }
      },
      "_created": "Thu, 01 Jan 1970 00:00:00 GMT",
      "_id": "22/3/2015JapanMatsue",
      "_etag": "f77086dde7e3cd7f919b692949da6ae05e781fc3"
    },
    {
      "_updated": "Thu, 01 Jan 1970 00:00:00 GMT",
      "city": "Volgograd",
      "loc": [
        48.7,
        44.516667
      ],
      "cntr_long": "Russia",
      "day_report": "22/3/2015",
      "twit_cnt": 1.0,
      "_links": {
        "self": {
          "href": "citytwits/22/3/2015RussiaVolgograd",
          "title": "Citytwit"
        }
      },
      "_created": "Thu, 01 Jan 1970 00:00:00 GMT",
      "_id": "22/3/2015RussiaVolgograd",
      "_etag": "56b844d70a4a26ffb3a5b9e9965a7c21f49d5976"
    },
    {
      "_updated": "Thu, 01 Jan 1970 00:00:00 GMT",
      "city": "Bylbasivka",
      "loc": [
        48.8394872,
        37.5001624
      ],
      "cntr_long": "Ukraine",
      "day_report": "22/3/2015",
      "twit_cnt": 1.0,
      "_links": {
        "self": {
          "href": "citytwits/22/3/2015UkraineBylbasivka",
          "title": "Citytwit"
        }
      },
      "_created": "Thu, 01 Jan 1970 00:00:00 GMT",
      "_id": "22/3/2015UkraineBylbasivka",
      "_etag": "f7dfb0c4260e8347ab6b0f6249615b55e9395307"
    },
    {
      "_updated": "Thu, 01 Jan 1970 00:00:00 GMT",
      "city": "Ryazan",
      "loc": [
        54.6095418,
        39.7125857
      ],
      "cntr_long": "Russia",
      "day_report": "22/3/2015",
      "twit_cnt": 1.0,
      "_links": {
        "self": {
          "href": "citytwits/22/3/2015RussiaRyazan",
          "title": "Citytwit"
        }
      },
      "_created": "Thu, 01 Jan 1970 00:00:00 GMT",
      "_id": "22/3/2015RussiaRyazan",
      "_etag": "1313885d68e09db58e18f94bf1e8a2ca10ee19fb"
    },
    {
      "_updated": "Thu, 01 Jan 1970 00:00:00 GMT",
      "city": "Vancouver",
      "loc": [
        49.2827291,
        -123.1207375
      ],
      "cntr_long": "Canada",
      "day_report": "22/3/2015",
      "twit_cnt": 1.0,
      "_links": {
        "self": {
          "href": "citytwits/22/3/2015CanadaVancouver",
          "title": "Citytwit"
        }
      },
      "_created": "Thu, 01 Jan 1970 00:00:00 GMT",
      "_id": "22/3/2015CanadaVancouver",
      "_etag": "2abaacd432450415ca38aac796071dd4fef7bc6e"
    },
    {
      "_updated": "Thu, 01 Jan 1970 00:00:00 GMT",
      "city": " ",
      "loc": [
        -25.274398,
        133.775136
      ],
      "cntr_long": "Australia",
      "day_report": "22/3/2015",
      "twit_cnt": 1.0,
      "_links": {
        "self": {
          "href": "citytwits/22/3/2015Australia ",
          "title": "Citytwit"
        }
      },
      "_created": "Thu, 01 Jan 1970 00:00:00 GMT",
      "_id": "22/3/2015Australia ",
      "_etag": "c485c49f31ea81129d48e1d48f76fbc49a6dfb6c"
    },
    {
      "_updated": "Thu, 01 Jan 1970 00:00:00 GMT",
      "city": "New York",
      "loc": [
        40.7127837,
        -74.0059413
      ],
      "cntr_long": "United States",
      "day_report": "22/3/2015",
      "twit_cnt": 2.0,
      "_links": {
        "self": {
          "href": "citytwits/22/3/2015United StatesNew York",
          "title": "Citytwit"
        }
      },
      "_created": "Thu, 01 Jan 1970 00:00:00 GMT",
      "_id": "22/3/2015United StatesNew York",
      "_etag": "b52c12629b4cdeaef1d24c521136bee71db3e834"
    },
    {
      "_updated": "Thu, 01 Jan 1970 00:00:00 GMT",
      "city": "Norman",
      "loc": [
        35.2225668,
        -97.4394777
      ],
      "cntr_long": "United States",
      "day_report": "22/3/2015",
      "twit_cnt": 8.0,
      "_links": {
        "self": {
          "href": "citytwits/22/3/2015United StatesNorman",
          "title": "Citytwit"
        }
      },
      "_created": "Thu, 01 Jan 1970 00:00:00 GMT",
      "_id": "22/3/2015United StatesNorman",
      "_etag": "55eb4f0ef55c71ed3bf223e1aeec9f4a2727c892"
    },
    {
      "_updated": "Thu, 01 Jan 1970 00:00:00 GMT",
      "city": "\u583a\u5e02",
      "loc": [
        34.573262,
        135.482998
      ],
      "cntr_long": "Japan",
      "day_report": "23/3/2015",
      "twit_cnt": 1.0,
      "_links": {
        "self": {
          "href": "citytwits/23/3/2015Japan\u583a\u5e02",
          "title": "Citytwit"
        }
      },
      "_created": "Thu, 01 Jan 1970 00:00:00 GMT",
      "_id": "23/3/2015Japan\u583a\u5e02",
      "_etag": "8c2c72c19701c9f3dc4e3930ebe6f34736ab87a1"
    },
    {
      "_updated": "Thu, 01 Jan 1970 00:00:00 GMT",
      "city": "Ichinomiya",
      "loc": [
        35.3038899,
        136.8029326
      ],
      "cntr_long": "Japan",
      "day_report": "22/3/2015",
      "twit_cnt": 1.0,
      "_links": {
        "self": {
          "href": "citytwits/22/3/2015JapanIchinomiya",
          "title": "Citytwit"
        }
      },
      "_created": "Thu, 01 Jan 1970 00:00:00 GMT",
      "_id": "22/3/2015JapanIchinomiya",
      "_etag": "3bb061262b8f52232b19e91b7febcbcc5a55f98a"
    },
    {
      "_updated": "Thu, 01 Jan 1970 00:00:00 GMT",
      "city": "Krushynka",
      "loc": [
        50.230556,
        30.369722
      ],
      "cntr_long": "Ukraine",
      "day_report": "23/3/2015",
      "twit_cnt": 1.0,
      "_links": {
        "self": {
          "href": "citytwits/23/3/2015UkraineKrushynka",
          "title": "Citytwit"
        }
      },
      "_created": "Thu, 01 Jan 1970 00:00:00 GMT",
      "_id": "23/3/2015UkraineKrushynka",
      "_etag": "95b7cd7e7435214aaf1c203913083e3767b3dede"
    },
    {
      "_updated": "Thu, 01 Jan 1970 00:00:00 GMT",
      "city": "Peterborough",
      "loc": [
        52.56949849999999,
        -0.2405299
      ],
      "cntr_long": "United Kingdom",
      "day_report": "22/3/2015",
      "twit_cnt": 2.0,
      "_links": {
        "self": {
          "href": "citytwits/22/3/2015United KingdomPeterborough",
          "title": "Citytwit"
        }
      },
      "_created": "Thu, 01 Jan 1970 00:00:00 GMT",
      "_id": "22/3/2015United KingdomPeterborough",
      "_etag": "207098c2c9567438b7bc8226a9a59bfe38db326c"
    },
    {
      "_updated": "Thu, 01 Jan 1970 00:00:00 GMT",
      "city": " ",
      "loc": [
        55.378051,
        -3.435973
      ],
      "cntr_long": "United Kingdom",
      "day_report": "23/3/2015",
      "twit_cnt": 2.0,
      "_links": {
        "self": {
          "href": "citytwits/23/3/2015United Kingdom ",
          "title": "Citytwit"
        }
      },
      "_created": "Thu, 01 Jan 1970 00:00:00 GMT",
      "_id": "23/3/2015United Kingdom ",
      "_etag": "43ac477f2f3f2947a47d8c012c1ef8fdc0973349"
    },
    {
      "_updated": "Thu, 01 Jan 1970 00:00:00 GMT",
      "city": "Voronivka",
      "loc": [
        47.668333,
        31.423333
      ],
      "cntr_long": "Ukraine",
      "day_report": "23/3/2015",
      "twit_cnt": 1.0,
      "_links": {
        "self": {
          "href": "citytwits/23/3/2015UkraineVoronivka",
          "title": "Citytwit"
        }
      },
      "_created": "Thu, 01 Jan 1970 00:00:00 GMT",
      "_id": "23/3/2015UkraineVoronivka",
      "_etag": "622df989e294ca10147ab71becc4bd7afc89090e"
    },
    {
      "_updated": "Thu, 01 Jan 1970 00:00:00 GMT",
      "city": "Guelph",
      "loc": [
        43.5448048,
        -80.24816659999999
      ],
      "cntr_long": "Canada",
      "day_report": "22/3/2015",
      "twit_cnt": 1.0,
      "_links": {
        "self": {
          "href": "citytwits/22/3/2015CanadaGuelph",
          "title": "Citytwit"
        }
      },
      "_created": "Thu, 01 Jan 1970 00:00:00 GMT",
      "_id": "22/3/2015CanadaGuelph",
      "_etag": "84c1c771ba3fdbd4f95f94a61d57c46eb640a905"
    },
    {
      "_updated": "Thu, 01 Jan 1970 00:00:00 GMT",
      "city": " ",
      "loc": [
        15.0979,
        145.6739
      ],
      "cntr_long": "Northern Mariana Islands",
      "day_report": "22/3/2015",
      "twit_cnt": 1.0,
      "_links": {
        "self": {
          "href": "citytwits/22/3/2015Northern Mariana Islands ",
          "title": "Citytwit"
        }
      },
      "_created": "Thu, 01 Jan 1970 00:00:00 GMT",
      "_id": "22/3/2015Northern Mariana Islands ",
      "_etag": "8d95d15709010d0701c64f70d72143504c2d6224"
    },
    {
      "_updated": "Thu, 01 Jan 1970 00:00:00 GMT",
      "city": "Sunderland",
      "loc": [
        54.906869,
        -1.383801
      ],
      "cntr_long": "United Kingdom",
      "day_report": "23/3/2015",
      "twit_cnt": 1.0,
      "_links": {
        "self": {
          "href": "citytwits/23/3/2015United KingdomSunderland",
          "title": "Citytwit"
        }
      },
      "_created": "Thu, 01 Jan 1970 00:00:00 GMT",
      "_id": "23/3/2015United KingdomSunderland",
      "_etag": "ec288ca7a2ebc6b172b2a648ff72b2699a47d97b"
    },
    {
      "_updated": "Thu, 01 Jan 1970 00:00:00 GMT",
      "city": "Moscow",
      "loc": [
        55.755826,
        37.6173
      ],
      "cntr_long": "Russia",
      "day_report": "22/3/2015",
      "twit_cnt": 2.0,
      "_links": {
        "self": {
          "href": "citytwits/22/3/2015RussiaMoscow",
          "title": "Citytwit"
        }
      },
      "_created": "Thu, 01 Jan 1970 00:00:00 GMT",
      "_id": "22/3/2015RussiaMoscow",
      "_etag": "5e0a1bccd41c5da7163383b76ac2e4ba5c399b8d"
    },
    {
      "_updated": "Thu, 01 Jan 1970 00:00:00 GMT",
      "city": "Kyiv",
      "loc": [
        50.4501,
        30.5234
      ],
      "cntr_long": "Ukraine",
      "day_report": "23/3/2015",
      "twit_cnt": 1.0,
      "_links": {
        "self": {
          "href": "citytwits/23/3/2015UkraineKyiv",
          "title": "Citytwit"
        }
      },
      "_created": "Thu, 01 Jan 1970 00:00:00 GMT",
      "_id": "23/3/2015UkraineKyiv",
      "_etag": "4aa6fe971b8812e3b881f91bfbf2c9fadb6137bb"
    },
    {
      "_updated": "Thu, 01 Jan 1970 00:00:00 GMT",
      "city": "Yaroslavl",
      "loc": [
        57.62607440000001,
        39.8844708
      ],
      "cntr_long": "Russia",
      "day_report": "23/3/2015",
      "twit_cnt": 1.0,
      "_links": {
        "self": {
          "href": "citytwits/23/3/2015RussiaYaroslavl",
          "title": "Citytwit"
        }
      },
      "_created": "Thu, 01 Jan 1970 00:00:00 GMT",
      "_id": "23/3/2015RussiaYaroslavl",
      "_etag": "fa187fc78df09fa02684e98c0c953110306c3dab"
    },
    {
      "_updated": "Thu, 01 Jan 1970 00:00:00 GMT",
      "city": " ",
      "loc": [
        -0.789275,
        113.921327
      ],
      "cntr_long": "Indonesia",
      "day_report": "23/3/2015",
      "twit_cnt": 1.0,
      "_links": {
        "self": {
          "href": "citytwits/23/3/2015Indonesia ",
          "title": "Citytwit"
        }
      },
      "_created": "Thu, 01 Jan 1970 00:00:00 GMT",
      "_id": "23/3/2015Indonesia ",
      "_etag": "67d3876bad35b56e43fad0a20128a87763b92408"
    }
  ],
  "_links": {
    "self": {
      "href": "citytwits",
      "title": "citytwits"
    },
    "last": {
      "href": "citytwits?page=3",
      "title": "last page"
    },
    "parent": {
      "href": "/",
      "title": "home"
    },
    "next": {
      "href": "citytwits?page=2",
      "title": "next page"
    }
  },
  "_meta": {
    "max_results": 25,
    "total": 51,
    "page": 1
  }
}