{"_items": [{"_updated": "Thu, 01 Jan 1970 00:00:00 GMT", "city": "Sunderland", "loc": [54.906869, -1.383801], "cntr_long": "United Kingdom", "day_report": "23/3/2015", "twit_cnt": 1.0, "_links": {"self": {"href": "citytwits/23/3/2015United KingdomSunderland", "title": "Citytwit"}}, "_created": "Thu, 01 Jan 1970 00:00:00 GMT", "_id": "23/3/2015United KingdomSunderland", "_etag": "ec288ca7a2ebc6b172b2a648ff72b2699a47d97b"}, {"_updated": "Thu, 01 Jan 1970 00:00:00 GMT", "city": "Moscow", "loc": [55.755826, 37.6173], "cntr_long": "Russia", "day_report": "22/3/2015", "twit_cnt": 2.0, "_links": {"self": {"href": "citytwits/22/3/2015RussiaMoscow", "title": "Citytwit"}}, "_created": "Thu, 01 Jan 1970 00:00:00 GMT", "_id": "22/3/2015RussiaMoscow", "_etag": "5e0a1bccd41c5da7163383b76ac2e4ba5c399b8d"}, {"_updated": "Thu, 01 Jan 1970 00:00:00 GMT", "city": "Kyiv", "loc": [50.4501, 30.5234], "cntr_long": "Ukraine", "day_report": "23/3/2015", "twit_cnt": 1.0, "_links": {"self": {"href": "citytwits/23/3/2015UkraineKyiv", "title": "Citytwit"}}, "_created": "Thu, 01 Jan 1970 00:00:00 GMT", "_id": "23/3/2015UkraineKyiv", "_etag": "4aa6fe971b8812e3b881f91bfbf2c9fadb6137bb"}, {"_updated": "Thu, 01 Jan 1970 00:00:00 GMT", "city": "Yaroslavl", "loc": [57.62607440000001, 39.8844708], "cntr_long": "Russia", "day_report": "23/3/2015", "twit_cnt": 1.0, "_links": {"self": {"href": "citytwits/23/3/2015RussiaYaroslavl", "title": "Citytwit"}}, "_created": "Thu, 01 Jan 1970 00:00:00 GMT", "_id": "23/3/2015RussiaYaroslavl", "_etag": "fa187fc78df09fa02684e98c0c953110306c3dab"}, {"_updated": "Thu, 01 Jan 1970 00:00:00 GMT", "city": " ", "loc": [-0.789275, 113.921327], "cntr_long": "Indonesia", "day_report": "23/3/2015", "twit_cnt": 1.0, "_links": {"self": {"href": "citytwits/23/3/2015Indonesia ", "title": "Citytwit"}}, "_created": "Thu, 01 Jan 1970 00:00:00 GMT", "_id": "23/3/2015Indonesia ", "_etag": "67d3876bad35b56e43fad0a20128a87763b92408"}, {"_updated": "Thu, 01 Jan 1970 00:00:00 GMT", "city": "Vysok\u00e9 Tatry", "loc": [49.137508, 20.2182306], "cntr_long": "Slovakia", "day_report": "23/3/2015", "twit_cnt": 1.0, "_links": {"self": {"href": "citytwits/23/3/2015SlovakiaVysok\u00e9 Tatry", "title": "Citytwit"}}, "_created": "Thu, 01 Jan 1970 00:00:00 GMT", "_id": "23/3/2015SlovakiaVysok\u00e9 Tatry", "_etag": "d6b932480ae48fb81f8635edb0f18f96da56d637"}, {"_updated": "Thu, 01 Jan 1970 00:00:00 GMT", "city": "Malm\u00f6", "loc": [55.604981, 13.003822], "cntr_long": "Sweden", "day_report": "23/3/2015", "twit_cnt": 1.0, "_links": {"self": {"href": "citytwits/23/3/2015SwedenMalm\u00f6", "title": "Citytwit"}}, "_created": "Thu, 01 Jan 1970 00:00:00 GMT", "_id": "23/3/2015SwedenMalm\u00f6", "_etag": "50b7c8ca761800a99b3f701a06814f9a32eba773"}, {"_updated": "Thu, 01 Jan 1970 00:00:00 GMT", "city": "Donetsk", "loc": [48.015883, 37.80285], "cntr_long": "Ukraine", "day_report": "23/3/2015", "twit_cnt": 1.0, "_links": {"self": {"href": "citytwits/23/3/2015UkraineDonetsk", "title": "Citytwit"}}, "_created": "Thu, 01 Jan 1970 00:00:00 GMT", "_id": "23/3/2015UkraineDonetsk", "_etag": "938708f72e948d179e9e761a933672d3f124b75d"}, {"_updated": "Thu, 01 Jan 1970 00:00:00 GMT", "city": "Dnepropetrovsk", "loc": [48.464717, 35.046183], "cntr_long": "Ukraine", "day_report": "23/3/2015", "twit_cnt": 1.0, "_links": {"self": {"href": "citytwits/23/3/2015UkraineDnepropetrovsk", "title": "Citytwit"}}, "_created": "Thu, 01 Jan 1970 00:00:00 GMT", "_id": "23/3/2015UkraineDnepropetrovsk", "_etag": "3a791c6423d15e352de33cf85f92fb1f7df06a09"}, {"_updated": "Thu, 01 Jan 1970 00:00:00 GMT", "city": "Chahaignes", "loc": [47.7411, 0.513586], "cntr_long": "France", "day_report": "23/3/2015", "twit_cnt": 1.0, "_links": {"self": {"href": "citytwits/23/3/2015FranceChahaignes", "title": "Citytwit"}}, "_created": "Thu, 01 Jan 1970 00:00:00 GMT", "_id": "23/3/2015FranceChahaignes", "_etag": "f04752d5435faa29068c553aad070f7abc49fcc0"}, {"_updated": "Thu, 01 Jan 1970 00:00:00 GMT", "city": "Kaliningrad", "loc": [54.716667, 20.516667], "cntr_long": "Russia", "day_report": "23/3/2015", "twit_cnt": 1.0, "_links": {"self": {"href": "citytwits/23/3/2015RussiaKaliningrad", "title": "Citytwit"}}, "_created": "Thu, 01 Jan 1970 00:00:00 GMT", "_id": "23/3/2015RussiaKaliningrad", "_etag": "f03c7b350c2869904b81158e1a017fd31a79f49b"}, {"_updated": "Thu, 01 Jan 1970 00:00:00 GMT", "city": "Birmingham", "loc": [33.5206608, -86.80248999999999], "cntr_long": "United States", "day_report": "23/3/2015", "twit_cnt": 1.0, "_links": {"self": {"href": "citytwits/23/3/2015United StatesBirmingham", "title": "Citytwit"}}, "_created": "Thu, 01 Jan 1970 00:00:00 GMT", "_id": "23/3/2015United StatesBirmingham", "_etag": "83d4bc148da30cba0803a2065c96f3f35d97dfe9"}, {"_updated": "Thu, 01 Jan 1970 00:00:00 GMT", "city": "Vidnoye", "loc": [55.55, 37.7], "cntr_long": "Russia", "day_report": "23/3/2015", "twit_cnt": 1.0, "_links": {"self": {"href": "citytwits/23/3/2015RussiaVidnoye", "title": "Citytwit"}}, "_created": "Thu, 01 Jan 1970 00:00:00 GMT", "_id": "23/3/2015RussiaVidnoye", "_etag": "16e43ed57b3352f64f9407fb092490f92e1d5d3c"}, {"_updated": "Thu, 01 Jan 1970 00:00:00 GMT", "city": "Paterson", "loc": [40.9167654, -74.17181099999999], "cntr_long": "United States", "day_report": "22/3/2015", "twit_cnt": 1.0, "_links": {"self": {"href": "citytwits/22/3/2015United StatesPaterson", "title": "Citytwit"}}, "_created": "Thu, 01 Jan 1970 00:00:00 GMT", "_id": "22/3/2015United StatesPaterson", "_etag": "fcb455892c87fce77c8b58a88f5fc22796e23106"}, {"_updated": "Thu, 01 Jan 1970 00:00:00 GMT", "city": "Moscow", "loc": [55.755826, 37.6173], "cntr_long": "Russia", "day_report": "23/3/2015", "twit_cnt": 2.0, "_links": {"self": {"href": "citytwits/23/3/2015RussiaMoscow", "title": "Citytwit"}}, "_created": "Thu, 01 Jan 1970 00:00:00 GMT", "_id": "23/3/2015RussiaMoscow", "_etag": "c08bab2ab13f92035c5ce20b06286d8c5bd3b6a8"}, {"_updated": "Thu, 01 Jan 1970 00:00:00 GMT", "city": "Norman", "loc": [35.2225668, -97.4394777], "cntr_long": "United States", "day_report": "23/3/2015", "twit_cnt": 5.0, "_links": {"self": {"href": "citytwits/23/3/2015United StatesNorman", "title": "Citytwit"}}, "_created": "Thu, 01 Jan 1970 00:00:00 GMT", "_id": "23/3/2015United StatesNorman", "_etag": "21bdf75689088931de14a449ec488b1c8622e894"}, {"_updated": "Thu, 01 Jan 1970 00:00:00 GMT", "city": "Berlin", "loc": [52.52000659999999, 13.404954], "cntr_long": "Germany", "day_report": "22/3/2015", "twit_cnt": 1.0, "_links": {"self": {"href": "citytwits/22/3/2015GermanyBerlin", "title": "Citytwit"}}, "_created": "Thu, 01 Jan 1970 00:00:00 GMT", "_id": "22/3/2015GermanyBerlin", "_etag": "7b9031d8e456cdc9c7692bd5cf6865b888f3d598"}, {"_updated": "Thu, 01 Jan 1970 00:00:00 GMT", "city": " ", "loc": [56.130366, -106.346771], "cntr_long": "Canada", "day_report": "23/3/2015", "twit_cnt": 1.0, "_links": {"self": {"href": "citytwits/23/3/2015Canada ", "title": "Citytwit"}}, "_created": "Thu, 01 Jan 1970 00:00:00 GMT", "_id": "23/3/2015Canada ", "_etag": "ae8935f4d9746714a1cfb0bca2ca61a7054a1276"}, {"_updated": "Thu, 01 Jan 1970 00:00:00 GMT", "city": "Samara", "loc": [53.202778, 50.140833], "cntr_long": "Russia", "day_report": "22/3/2015", "twit_cnt": 1.0, "_links": {"self": {"href": "citytwits/22/3/2015RussiaSamara", "title": "Citytwit"}}, "_created": "Thu, 01 Jan 1970 00:00:00 GMT", "_id": "22/3/2015RussiaSamara", "_etag": "f0e9ec3162715940663d45315946a7d83eb07ea0"}, {"_updated": "Thu, 01 Jan 1970 00:00:00 GMT", "city": "Melitopol'", "loc": [46.833333, 35.366667], "cntr_long": "Ukraine", "day_report": "23/3/2015", "twit_cnt": 1.0, "_links": {"self": {"href": "citytwits/23/3/2015UkraineMelitopol'", "title": "Citytwit"}}, "_created": "Thu, 01 Jan 1970 00:00:00 GMT", "_id": "23/3/2015UkraineMelitopol'", "_etag": "a0180e27c3033f4cdedefb54879d2a6c8b0ef60d"}, {"_updated": "Thu, 01 Jan 1970 00:00:00 GMT", "city": "Curitiba", "loc": [-25.4289541, -49.267137], "cntr_long": "Brazil", "day_report": "22/3/2015", "twit_cnt": 1.0, "_links": {"self": {"href": "citytwits/22/3/2015BrazilCuritiba", "title": "Citytwit"}}, "_created": "Thu, 01 Jan 1970 00:00:00 GMT", "_id": "22/3/2015BrazilCuritiba", "_etag": "a2835cebfcd4895be63572d2e66669923570ed9d"}, {"_updated": "Thu, 01 Jan 1970 00:00:00 GMT", "city": "Chicago", "loc": [41.8781136, -87.6297982], "cntr_long": "United States", "day_report": "23/3/2015", "twit_cnt": 1.0, "_links": {"self": {"href": "citytwits/23/3/2015United StatesChicago", "title": "Citytwit"}}, "_created": "Thu, 01 Jan 1970 00:00:00 GMT", "_id": "23/3/2015United StatesChicago", "_etag": "51724f23a639b861554bddb9ec7f024a08f2af3c"}, {"_updated": "Thu, 01 Jan 1970 00:00:00 GMT", "city": "Noordscheschut", "loc": [52.7237546, 6.5356], "cntr_long": "Netherlands", "day_report": "23/3/2015", "twit_cnt": 1.0, "_links": {"self": {"href": "citytwits/23/3/2015NetherlandsNoordscheschut", "title": "Citytwit"}}, "_created": "Thu, 01 Jan 1970 00:00:00 GMT", "_id": "23/3/2015NetherlandsNoordscheschut", "_etag": "6d2cc189e9364527d681723aaad37954f1140c9c"}, {"_updated": "Thu, 01 Jan 1970 00:00:00 GMT", "city": "Kulynka", "loc": [49.145, 24.248611], "cntr_long": "Ukraine", "day_report": "23/3/2015", "twit_cnt": 1.0, "_links": {"self": {"href": "citytwits/23/3/2015UkraineKulynka", "title": "Citytwit"}}, "_created": "Thu, 01 Jan 1970 00:00:00 GMT", "_id": "23/3/2015UkraineKulynka", "_etag": "3cbe63e63712b6aa782f6be4cf4b2c74c8a56ace"}, {"_updated": "Thu, 01 Jan 1970 00:00:00 GMT", "city": "Santee", "loc": [32.8383828, -116.9739167], "cntr_long": "United States", "day_report": "23/3/2015", "twit_cnt": 1.0, "_links": {"self": {"href": "citytwits/23/3/2015United StatesSantee", "title": "Citytwit"}}, "_created": "Thu, 01 Jan 1970 00:00:00 GMT", "_id": "23/3/2015United StatesSantee", "_etag": "f42d0fa78ebb883356650804b94a0d5bd3357e6c"}, {"_updated": "Thu, 01 Jan 1970 00:00:00 GMT", "city": "Stavropol", "loc": [45.05, 41.98333299999999], "cntr_long": "Russia", "day_report": "22/3/2015", "twit_cnt": 1.0, "_links": {"self": {"href": "citytwits/22/3/2015RussiaStavropol", "title": "Citytwit"}}, "_created": "Thu, 01 Jan 1970 00:00:00 GMT", "_id": "22/3/2015RussiaStavropol", "_etag": "ab4961488ac0e6b73d06df55d3363195a7ac0d10"}, {"_updated": "Thu, 01 Jan 1970 00:00:00 GMT", "city": " ", "loc": [37.09024, -95.712891], "cntr_long": "United States", "day_report": "23/3/2015", "twit_cnt": 4.0, "_links": {"self": {"href": "citytwits/23/3/2015United States ", "title": "Citytwit"}}, "_created": "Thu, 01 Jan 1970 00:00:00 GMT", "_id": "23/3/2015United States ", "_etag": "10a8e7a7b73671090d621f31af6965d3bcc0ff82"}, {"_updated": "Thu, 01 Jan 1970 00:00:00 GMT", "city": "Ipatinga", "loc": [-19.4707569, -42.548012], "cntr_long": "Brazil", "day_report": "23/3/2015", "twit_cnt": 1.0, "_links": {"self": {"href": "citytwits/23/3/2015BrazilIpatinga", "title": "Citytwit"}}, "_created": "Thu, 01 Jan 1970 00:00:00 GMT", "_id": "23/3/2015BrazilIpatinga", "_etag": "b7796d36938b82025693b6793e9280f3eb3ec3c2"}, {"_updated": "Thu, 01 Jan 1970 00:00:00 GMT", "city": "\u041a\u0440\u0438\u0432\u0441\u043a", "loc": [52.5880856, 30.5117037], "cntr_long": "Belarus", "day_report": "23/3/2015", "twit_cnt": 1.0, "_links": {"self": {"href": "citytwits/23/3/2015Belarus\u041a\u0440\u0438\u0432\u0441\u043a", "title": "Citytwit"}}, "_created": "Thu, 01 Jan 1970 00:00:00 GMT", "_id": "23/3/2015Belarus\u041a\u0440\u0438\u0432\u0441\u043a", "_etag": "7f670174050259253cbdd6cb630c746673c42f04"}, {"_updated": "Thu, 01 Jan 1970 00:00:00 GMT", "city": " ", "loc": [36.204824, 138.252924], "cntr_long": "Japan", "day_report": "23/3/2015", "twit_cnt": 1.0, "_links": {"self": {"href": "citytwits/23/3/2015Japan ", "title": "Citytwit"}}, "_created": "Thu, 01 Jan 1970 00:00:00 GMT", "_id": "23/3/2015Japan ", "_etag": "a734a322326e14a64e071e5b32896427ceb9bf7d"}, {"_updated": "Thu, 01 Jan 1970 00:00:00 GMT", "city": "Slavyanka", "loc": [42.8711878, 131.3784441], "cntr_long": "Russia", "day_report": "23/3/2015", "twit_cnt": 1.0, "_links": {"self": {"href": "citytwits/23/3/2015RussiaSlavyanka", "title": "Citytwit"}}, "_created": "Thu, 01 Jan 1970 00:00:00 GMT", "_id": "23/3/2015RussiaSlavyanka", "_etag": "4f9ba4d1b4c68ff231de226ad33e2b94dcf179bc"}, {"_updated": "Thu, 01 Jan 1970 00:00:00 GMT", "city": "Kagoshima-shi", "loc": [31.5965535, 130.5571158], "cntr_long": "Japan", "day_report": "22/3/2015", "twit_cnt": 1.0, "_links": {"self": {"href": "citytwits/22/3/2015JapanKagoshima-shi", "title": "Citytwit"}}, "_created": "Thu, 01 Jan 1970 00:00:00 GMT", "_id": "22/3/2015JapanKagoshima-shi", "_etag": "df81e0656c01bbdefaa624a092a4af109f0d9bd7"}, {"_updated": "Thu, 01 Jan 1970 00:00:00 GMT", "city": "Tucson", "loc": [32.2217429, -110.926479], "cntr_long": "United States", "day_report": "22/3/2015", "twit_cnt": 1.0, "_links": {"self": {"href": "citytwits/22/3/2015United StatesTucson", "title": "Citytwit"}}, "_created": "Thu, 01 Jan 1970 00:00:00 GMT", "_id": "22/3/2015United StatesTucson", "_etag": "5cb830e002bb834bc76af3787f73380ee36ba0ad"}, {"_updated": "Thu, 01 Jan 1970 00:00:00 GMT", "city": "Bondurant", "loc": [41.7019329, -93.4607681], "cntr_long": "United States", "day_report": "22/3/2015", "twit_cnt": 1.0, "_links": {"self": {"href": "citytwits/22/3/2015United StatesBondurant", "title": "Citytwit"}}, "_created": "Thu, 01 Jan 1970 00:00:00 GMT", "_id": "22/3/2015United StatesBondurant", "_etag": "d6e7f605167692993dba672ba78201a4dbc5a172"}, {"_updated": "Thu, 01 Jan 1970 00:00:00 GMT", "city": " ", "loc": [37.09024, -95.712891], "cntr_long": "United States", "day_report": "22/3/2015", "twit_cnt": 10.0, "_links": {"self": {"href": "citytwits/22/3/2015United States ", "title": "Citytwit"}}, "_created": "Thu, 01 Jan 1970 00:00:00 GMT", "_id": "22/3/2015United States ", "_etag": "b0034c50a99183c0c14a6aa22dd8bcc087145ff9"}, {"_updated": "Thu, 01 Jan 1970 00:00:00 GMT", "city": "Matsue", "loc": [35.4680595, 133.048375], "cntr_long": "Japan", "day_report": "22/3/2015", "twit_cnt": 1.0, "_links": {"self": {"href": "citytwits/22/3/2015JapanMatsue", "title": "Citytwit"}}, "_created": "Thu, 01 Jan 1970 00:00:00 GMT", "_id": "22/3/2015JapanMatsue", "_etag": "f77086dde7e3cd7f919b692949da6ae05e781fc3"}, {"_updated": "Thu, 01 Jan 1970 00:00:00 GMT", "city": "Volgograd", "loc": [48.7, 44.516667], "cntr_long": "Russia", "day_report": "22/3/2015", "twit_cnt": 1.0, "_links": {"self": {"href": "citytwits/22/3/2015RussiaVolgograd", "title": "Citytwit"}}, "_created": "Thu, 01 Jan 1970 00:00:00 GMT", "_id": "22/3/2015RussiaVolgograd", "_etag": "56b844d70a4a26ffb3a5b9e9965a7c21f49d5976"}, {"_updated": "Thu, 01 Jan 1970 00:00:00 GMT", "city": "Bylbasivka", "loc": [48.8394872, 37.5001624], "cntr_long": "Ukraine", "day_report": "22/3/2015", "twit_cnt": 1.0, "_links": {"self": {"href": "citytwits/22/3/2015UkraineBylbasivka", "title": "Citytwit"}}, "_created": "Thu, 01 Jan 1970 00:00:00 GMT", "_id": "22/3/2015UkraineBylbasivka", "_etag": "f7dfb0c4260e8347ab6b0f6249615b55e9395307"}, {"_updated": "Thu, 01 Jan 1970 00:00:00 GMT", "city": "Ryazan", "loc": [54.6095418, 39.7125857], "cntr_long": "Russia", "day_report": "22/3/2015", "twit_cnt": 1.0, "_links": {"self": {"href": "citytwits/22/3/2015RussiaRyazan", "title": "Citytwit"}}, "_created": "Thu, 01 Jan 1970 00:00:00 GMT", "_id": "22/3/2015RussiaRyazan", "_etag": "1313885d68e09db58e18f94bf1e8a2ca10ee19fb"}, {"_updated": "Thu, 01 Jan 1970 00:00:00 GMT", "city": "Vancouver", "loc": [49.2827291, -123.1207375], "cntr_long": "Canada", "day_report": "22/3/2015", "twit_cnt": 1.0, "_links": {"self": {"href": "citytwits/22/3/2015CanadaVancouver", "title": "Citytwit"}}, "_created": "Thu, 01 Jan 1970 00:00:00 GMT", "_id": "22/3/2015CanadaVancouver", "_etag": "2abaacd432450415ca38aac796071dd4fef7bc6e"}, {"_updated": "Thu, 01 Jan 1970 00:00:00 GMT", "city": " ", "loc": [-25.274398, 133.775136], "cntr_long": "Australia", "day_report": "22/3/2015", "twit_cnt": 1.0, "_links": {"self": {"href": "citytwits/22/3/2015Australia ", "title": "Citytwit"}}, "_created": "Thu, 01 Jan 1970 00:00:00 GMT", "_id": "22/3/2015Australia ", "_etag": "c485c49f31ea81129d48e1d48f76fbc49a6dfb6c"}, {"_updated": "Thu, 01 Jan 1970 00:00:00 GMT", "city": "New York", "loc": [40.7127837, -74.0059413], "cntr_long": "United States", "day_report": "22/3/2015", "twit_cnt": 2.0, "_links": {"self": {"href": "citytwits/22/3/2015United StatesNew York", "title": "Citytwit"}}, "_created": "Thu, 01 Jan 1970 00:00:00 GMT", "_id": "22/3/2015United StatesNew York", "_etag": "b52c12629b4cdeaef1d24c521136bee71db3e834"}, {"_updated": "Thu, 01 Jan 1970 00:00:00 GMT", "city": "Norman", "loc": [35.2225668, -97.4394777], "cntr_long": "United States", "day_report": "22/3/2015", "twit_cnt": 8.0, "_links": {"self": {"href": "citytwits/22/3/2015United StatesNorman", "title": "Citytwit"}}, "_created": "Thu, 01 Jan 1970 00:00:00 GMT", "_id": "22/3/2015United StatesNorman", "_etag": "55eb4f0ef55c71ed3bf223e1aeec9f4a2727c892"}, {"_updated": "Thu, 01 Jan 1970 00:00:00 GMT", "city": "\u583a\u5e02", "loc": [34.573262, 135.482998], "cntr_long": "Japan", "day_report": "23/3/2015", "twit_cnt": 1.0, "_links": {"self": {"href": "citytwits/23/3/2015Japan\u583a\u5e02", "title": "Citytwit"}}, "_created": "Thu, 01 Jan 1970 00:00:00 GMT", "_id": "23/3/2015Japan\u583a\u5e02", "_etag": "8c2c72c19701c9f3dc4e3930ebe6f34736ab87a1"}, {"_updated": "Thu, 01 Jan 1970 00:00:00 GMT", "city": "Ichinomiya", "loc": [35.3038899, 136.8029326], "cntr_long": "Japan", "day_report": "22/3/2015", "twit_cnt": 1.0, "_links": {"self": {"href": "citytwits/22/3/2015JapanIchinomiya", "title": "Citytwit"}}, "_created": "Thu, 01 Jan 1970 00:00:00 GMT", "_id": "22/3/2015JapanIchinomiya", "_etag": "3bb061262b8f52232b19e91b7febcbcc5a55f98a"}, {"_updated": "Thu, 01 Jan 1970 00:00:00 GMT", "city": "Krushynka", "loc": [50.230556, 30.369722], "cntr_long": "Ukraine", "day_report": "23/3/2015", "twit_cnt": 1.0, "_links": {"self": {"href": "citytwits/23/3/2015UkraineKrushynka", "title": "Citytwit"}}, "_created": "Thu, 01 Jan 1970 00:00:00 GMT", "_id": "23/3/2015UkraineKrushynka", "_etag": "95b7cd7e7435214aaf1c203913083e3767b3dede"}, {"_updated": "Thu, 01 Jan 1970 00:00:00 GMT", "city": "Peterborough", "loc": [52.56949849999999, -0.2405299], "cntr_long": "United Kingdom", "day_report": "22/3/2015", "twit_cnt": 2.0, "_links": {"self": {"href": "citytwits/22/3/2015United KingdomPeterborough", "title": "Citytwit"}}, "_created": "Thu, 01 Jan 1970 00:00:00 GMT", "_id": "22/3/2015United KingdomPeterborough", "_etag": "207098c2c9567438b7bc8226a9a59bfe38db326c"}, {"_updated": "Thu, 01 Jan 1970 00:00:00 GMT", "city": " ", "loc": [55.378051, -3.435973], "cntr_long": "United Kingdom", "day_report": "23/3/2015", "twit_cnt": 2.0, "_links": {"self": {"href": "citytwits/23/3/2015United Kingdom ", "title": "Citytwit"}}, "_created": "Thu, 01 Jan 1970 00:00:00 GMT", "_id": "23/3/2015United Kingdom ", "_etag": "43ac477f2f3f2947a47d8c012c1ef8fdc0973349"}, {"_updated": "Thu, 01 Jan 1970 00:00:00 GMT", "city": "Voronivka", "loc": [47.668333, 31.423333], "cntr_long": "Ukraine", "day_report": "23/3/2015", "twit_cnt": 1.0, "_links": {"self": {"href": "citytwits/23/3/2015UkraineVoronivka", "title": "Citytwit"}}, "_created": "Thu, 01 Jan 1970 00:00:00 GMT", "_id": "23/3/2015UkraineVoronivka", "_etag": "622df989e294ca10147ab71becc4bd7afc89090e"}, {"_updated": "Thu, 01 Jan 1970 00:00:00 GMT", "city": "Guelph", "loc": [43.5448048, -80.24816659999999], "cntr_long": "Canada", "day_report": "22/3/2015", "twit_cnt": 1.0, "_links": {"self": {"href": "citytwits/22/3/2015CanadaGuelph", "title": "Citytwit"}}, "_created": "Thu, 01 Jan 1970 00:00:00 GMT", "_id": "22/3/2015CanadaGuelph", "_etag": "84c1c771ba3fdbd4f95f94a61d57c46eb640a905"}], "_links": {"self": {"href": "citytwits?max_results=50", "title": "citytwits"}, "last": {"href": "citytwits?max_results=50&page=2", "title": "last page"}, "parent": {"href": "/", "title": "home"}, "next": {"href": "citytwits?max_results=50&page=2", "title": "next page"}}, "_meta": {"max_results": 50, "total": 51, "page": 1}}